Projekt
…
Еsiteks vaatame, kui palju eesti turul firmasid kes teostas TÜ ja
kuidas nad jagasid turgu.

## # A tibble: 132 × 2
##    PUNKTI_KOOD n_reviews
##    <chr>           <int>
##  1 AS              17991
##  2 MP              17812
##  3 AT              16410
##  4 TT              15062
##  5 MR              14559
##  6 TV              14439
##  7 AN              13531
##  8 BC              12786
##  9 FD              12073
## 10 KD              11533
## # ℹ 122 more rows
…
